Boraginaceae, Solonaceae, Apiaceae, and mapping in R
…
The output tells us that opuntia_metadata is a List object with 9 named elements. We are specifically interested in the named element $gbif, so we can simplify our object by subsetting:

opuntia_simple <- opuntia_metadata$gbif$data

While writing this code, we discovered that the opuntia_metadata object is pretty complex and with lots of layers! The code above says to take the large object opuntia_metadata and select the element named $gbif. Then, within the element $gbif, select the sub-element $data. Within $data there are 5 elements, each one contains the lat-long information for one of our Opuntia species.

Let’s look at the lat-long data for O. basilaris:

opuntia_simple$`Opuntia_basilaris_Engelm._&_J.M.Bigelow`

## # A tibble: 500 x 73
##    name  longitude latitude issues prov  key   scientificName datasetKey
##    <chr>     <dbl>    <dbl> <chr>  <chr> <chr> <chr>          <chr>     
##  1 Opun~     -117.     36.9 cdrou~ gbif  2549~ Opuntia basil~ 50c9509d-~
##  2 Opun~     -116.     34.1 cdrou~ gbif  2550~ Opuntia basil~ 50c9509d-~
##  3 Opun~     -117.     36.9 cdrou~ gbif  2550~ Opuntia basil~ 50c9509d-~
##  4 Opun~     -114.     32.2 cdrou~ gbif  2550~ Opuntia basil~ 50c9509d-~
##  5 Opun~     -117.     36.9 cdrou~ gbif  2550~ Opuntia basil~ 50c9509d-~
##  6 Opun~     -116.     33.7 cdrou~ gbif  2550~ Opuntia basil~ 50c9509d-~
##  7 Opun~     -116.     33.7 cdrou~ gbif  2550~ Opuntia basil~ 50c9509d-~
##  8 Opun~     -117.     36.9 cdrou~ gbif  2550~ Opuntia basil~ 50c9509d-~
##  9 Opun~     -116.     33.8 cdrou~ gbif  2550~ Opuntia basil~ 50c9509d-~
## 10 Opun~     -116.     33.8 cdrou~ gbif  2557~ Opuntia basil~ 50c9509d-~
## # ... with 490 more rows, and 65 more variables: publishingOrgKey <chr>,
## #   installationKey <chr>, publishingCountry <chr>, protocol <chr>,
## #   lastCrawled <chr>, lastParsed <chr>, crawlId <int>, basisOfRecord <chr>,
## #   occurrenceStatus <chr>, taxonKey <int>, kingdomKey <int>, phylumKey <int>,
## #   classKey <int>, orderKey <int>, familyKey <int>, genusKey <int>,
## #   speciesKey <int>, acceptedTaxonKey <int>, acceptedScientificName <chr>,
## #   kingdom <chr>, phylum <chr>, order <chr>, family <chr>, genus <chr>,
## #   species <chr>, genericName <chr>, specificEpithet <chr>, taxonRank <chr>,
## #   taxonomicStatus <chr>, dateIdentified <chr>,
…
